{
	"process_id" : 1988,
	"version" : "2019.3.0f6",
	"app_path" : "C:/Program Files/Unity/Hub/Editor/2019.3.0f6/Editor/Unity.exe",
	"app_contents_path" : "C:/Program Files/Unity/Hub/Editor/2019.3.0f6/Editor/Data"
}